[debug (06/07/15 22:13:22)] RunSetup: SikuliX Setup Build: 1.0.1 12NOV2013120000
[debug (06/07/15 22:13:22)] RunSetup: ... starting with no args given
[debug (06/07/15 22:13:22)] RunSetup: syspath: C:\Partage\Sikuli\libs
[debug (06/07/15 22:13:22)] RunSetup: syspath: C:\ProgramData\Oracle\Java\javapath
[debug (06/07/15 22:13:22)] RunSetup: syspath: c:\Program Files (x86)\AMD APP\bin\x86_64
[debug (06/07/15 22:13:22)] RunSetup: syspath: c:\Program Files (x86)\AMD APP\bin\x86
[debug (06/07/15 22:13:22)] RunSetup: syspath: C:\Program Files (x86)\Intel\iCLS Client\
[debug (06/07/15 22:13:22)] RunSetup: syspath: C:\Program Files\Intel\iCLS Client\
[debug (06/07/15 22:13:22)] RunSetup: syspath: C:\Windows\system32
[debug (06/07/15 22:13:22)] RunSetup: syspath: C:\Windows
[debug (06/07/15 22:13:22)] RunSetup: syspath: C:\Windows\System32\Wbem
[debug (06/07/15 22:13:22)] RunSetup: syspath: C:\Windows\System32\WindowsPowerShell\v1.0\
[debug (06/07/15 22:13:22)] RunSetup: syspath: C:\Program Files\Intel\Intel(R) Management Engine Components\DAL
[debug (06/07/15 22:13:22)] RunSetup: syspath: C:\Program Files (x86)\Intel\Intel(R) Management Engine Components\DAL
[debug (06/07/15 22:13:22)] RunSetup: syspath: C:\Program Files\Intel\Intel(R) Management Engine Components\IPT
[debug (06/07/15 22:13:22)] RunSetup: syspath: C:\Program Files (x86)\Intel\Intel(R) Management Engine Components\IPT
[debug (06/07/15 22:13:22)] RunSetup: syspath: C:\Program Files\Intel\WiFi\bin\
[debug (06/07/15 22:13:22)] RunSetup: syspath: C:\Program Files\Common Files\Intel\WirelessCommon\
[debug (06/07/15 22:13:22)] RunSetup: syspath: c:\Program Files (x86)\ATI Technologies\ATI.ACE\Core-Static
[debug (06/07/15 22:13:22)] RunSetup: user home: C:\Users\Greg
[debug (06/07/15 22:13:28)] RunSetup: RunningSystem: Windows 6.1
[debug (06/07/15 22:13:28)] RunSetup: parent of jar/classes: C:/Partage/Sikuli/
[debug (06/07/15 22:13:28)] RunSetup: RunningJava: Java 8 (amd64) 1.8.0_45-b15
[debug (06/07/15 22:13:28)] RunSetup: ... could not detect whether Sikuli is used the first time on this system
[debug (06/07/15 22:13:45)] FileManager: Downloading 1.0.1-3.jar having 408 KB
[debug (06/07/15 22:13:56)] FileManager: downloaded 408 KB to C:\Partage\Sikuli\1.0.1-3.jar
[debug (06/07/15 22:13:56)] FileManager: download time: 1
[debug (06/07/15 22:13:59)] RunSetup: Download ended
[debug (06/07/15 22:13:59)] RunSetup: adding native stuff to sikuli-java.jar
[debug (06/07/15 22:13:59)] FileManager: buildJar: C:\Partage\Sikuli\sikuli-temp.jar
[debug (06/07/15 22:13:59)] FileManager: buildJar: adding: C:\Partage\Sikuli\sikuli-java.jar
[debug (06/07/15 22:13:59)] FileManager: buildJar: adding: C:\Partage\Sikuli\sikuli-setup.jar
[debug (06/07/15 22:14:02)] FileManager: buildJar: completed
[debug (06/07/15 22:14:02)] RunSetup: trying to set up the environment
[debug (06/07/15 22:14:02)] ResourceLoaderBasic: check: we are running on arch: amd64
[debug (06/07/15 22:14:02)] ResourceLoaderBasic: check: using Java at: C:/Program Files/Java/jdk1.8.0_45/jre/
[error (06/07/15 22:14:02)] ResourceLoaderBasic: check: No valid libs path available until now!
[action (06/07/15 22:14:02)] ResourceLoaderBasic: check: Please wait! Trying to extract libs to jar parent folder: C:/Partage/Sikuli/
[debug (06/07/15 22:14:02)] ResourceLoaderBasic: extractLibs: Accessing jar: file:/C:/Partage/Sikuli/sikuli-setup.jar
[debug (06/07/15 22:14:02)] ResourceLoaderBasic: extractLibs: Found 14 Files in META-INF/libs/windows/libs64/
[debug (06/07/15 22:14:03)] ResourceLoaderBasic: export: Trying to access package
[debug (06/07/15 22:14:03)] ResourceLoaderBasic: export: Accessing jar: file:/C:/Partage/Sikuli/sikuli-setup.jar
[debug (06/07/15 22:14:03)] ResourceLoaderBasic: export: Found 0 Files in META-INF/libs/tessdata
[debug (06/07/15 22:14:03)] ResourceLoaderBasic: checkLibsDir: C:\Partage\Sikuli\libs
[debug (06/07/15 22:14:03)] ResourceLoaderBasic: loadLib: WinUtil
[debug (06/07/15 22:14:03)] ResourceLoaderBasic: loadLib: Found: WinUtil
[error (06/07/15 22:14:03)] ResourceLoaderBasic: loadLib: Fatal Error 110: loading: WinUtil.dll
[error (06/07/15 22:14:03)] ResourceLoaderBasic: loadLib: Since native library was found, it might be a problem with needed dependent libraries
C:\Partage\Sikuli\libs\WinUtil.dll: Can't find dependent libraries
[error (06/07/15 22:14:03)] ResourceLoaderBasic: loadLib: Check, wether a valid Sikuli libs folder is in system path at runtime!
[error (06/07/15 22:14:03)] ResourceLoaderBasic: loadLib: Running Setup: ignoring this error for now
[debug (06/07/15 22:14:03)] ResourceLoaderBasic: checkLibsDir: Using libs at: C:\Partage\Sikuli\libs
[debug (06/07/15 22:14:03)] ResourceLoaderBasic: export: Using this as OCR directory (tessdata) too
[debug (06/07/15 22:14:08)] RunSetup: Trying to run functional test: JAVA-API
[debug (06/07/15 22:14:08)] SikuliX: before adding to classpath: C:\Partage\Sikuli\sikuli-java.jar
[debug (06/07/15 22:14:08)] SikuliX: 0: file:/C:/Partage/Sikuli/sikuli-setup.jar
[debug (06/07/15 22:14:08)] SikuliX: after adding to classpath
[debug (06/07/15 22:14:08)] SikuliX: 0: file:/C:/Partage/Sikuli/sikuli-setup.jar
[debug (06/07/15 22:14:08)] SikuliX: 1: file:/C:/Partage/Sikuli/sikuli-java.jar
[debug (06/07/15 22:14:08)] RunSetup: trying to run org.sikuli.script.SikuliX.testSetup()
[debug (06/07/15 22:14:08)] RunSetup: class found: class org.sikuli.script.SikuliX
[debug (06/07/15 22:14:08)] RunSetup: getMethod: public static boolean org.sikuli.script.SikuliX.testSetup()
[debug (06/07/15 22:14:11)] RunSetup: invoke: public static boolean org.sikuli.script.SikuliX.testSetup()
[debug (06/07/15 22:14:11)] Screen: initScreens: basic initialization (1 Screen(s) found)
[debug (06/07/15 22:14:11)] *** monitor configuration (primary: 0) ***
[debug (06/07/15 22:14:11)] Screen 0: S(0)[0,0 1920x1080]
[debug (06/07/15 22:14:11)] *** end monitor configuration ***
[debug (06/07/15 22:14:11)] Screen.capture: java.awt.Rectangle[x=0,y=0,width=100,height=100]
[debug (06/07/15 22:14:11)] RobotDesktop: captureScreen: on 0 using java.awt.Rectangle[x=0,y=0,width=100,height=100]
[debug (06/07/15 22:14:11)] ResourceLoaderBasic: loadLib: VisionProxy
[debug (06/07/15 22:14:11)] ResourceLoaderBasic: loadLib: Found: VisionProxy
[debug (06/07/15 22:14:11)] ResourceLoaderBasic: loadLib: Now loaded: VisionProxy
[debug (06/07/15 22:14:20)] RunSetup: ... SikuliX Setup seems to have ended successfully ;-)
